Chapter 2 Building and applying a logistic regression spam model | Practical Data Science with R - Tidyverse style
…
# creating training and testing datasets
spamTrain <- dplyr::filter(.data = spamD, rgroup >= 10)
spamTest <- dplyr::filter(.data = spamD, rgroup < 10)

# training the model
spamModel <- stats::glm(formula = spam =="spam" ~ .,
           family = stats::binomial(link = "logit"),
           data = dplyr::select(spamTrain, -rgroup))

## Warning: glm.fit: fitted probabilities numerically 0 or 1 occurred

# looking at the result
broom::tidy(spamModel)

## # A tibble: 58 x 5
##    term               estimate std.error statistic  p.value
##    <chr>                 <dbl>     <dbl>     <dbl>    <dbl>
##  1 (Intercept)          -1.62     0.151     -10.7  1.24e-26
##  2 word.freq.make       -0.327    0.237      -1.38 1.68e- 1
##  3 word.freq.address    -0.155    0.0771     -2.00 4.51e- 2
##  4 word.freq.all         0.149    0.123       1.22 2.23e- 1
##  5 word.freq.3d          2.19     1.56        1.40 1.60e- 1
##  6 word.freq.our         0.476    0.102       4.68 2.91e- 6
##  7 word.freq.over        0.744    0.252       2.95 3.13e- 3
##  8 word.freq.remove      2.34     0.349       6.70 2.08e-11
##  9 word.freq.internet    0.801    0.220       3.63 2.83e- 4
## 10 word.freq.order       0.645    0.300       2.15 3.14e- 2
## # ... with 48 more rows
…
