Chapter 3 Exploring advanced methods | Practical Data Science with R - Tidyverse style
…
## See spec(...) for full column specifications.

# creating training and testing datasets
spamTrain <- dplyr::filter(.data = spamD, rgroup >= 10)
spamTest <- dplyr::filter(.data = spamD, rgroup < 10)

# training the model
treemodel <- rpart::rpart(formula = spam == "spam" ~ ., 
                          data = dplyr::select(spamTrain, -rgroup))

# tidy output
broomstick::tidy(treemodel)

## # A tibble: 32 x 2
##    variable                   importance
##    <fct>                           <dbl>
##  1 char.freq.bang                  326. 
##  2 word.freq.free                  145. 
##  3 capital.run.length.longest      143. 
##  4 char.freq.dollar                141. 
##  5 word.freq.remove                109. 
##  6 word.freq.your                  106. 
##  7 capital.run.length.average       98.3
##  8 word.freq.all                    80.6
##  9 capital.run.length.total         44.0
## 10 word.freq.hp                     32.1
## # ... with 22 more rows
